*** Life<FredkinCell> 13x2 ***

Generation = 0, Population = 9.
00
0-
0-
--
--
-0
--
--
0-
--
-0
0-
-0

Generation = 1, Population = 12.
-1
--
10
0-
-0
0-
-0
0-
-0
00
--
-0
--

Generation = 2, Population = 15.
0-
0-
-1
10
0-
-0
0-
-0
01
1-
0-
0-
-0

Generation = 3, Population = 13.
11
1-
12
--
10
0-
-0
01
--
--
-0
1-
--

*** Life<FredkinCell> 19x15 ***

Generation = 0, Population = 45.
---0---0-----00
---0----------0
------0--------
000-0-----0----
---------------
---0-0-------0-
---------0-----
-----0-0---0---
---0-----------
--0---0-----0--
0---0---0---0--
0--0-----0-----
-----------0---
--0-----0------
----------00-0-
-------0-------
-----0-----0-0-
--0---00-------
0--------0-----

Generation = 1, Population = 126.
--010-0-0---01-
--010-00------1
000000-0--0---0
1-1--00--0-0---
000000----0--0-
--0---0--0--0-0
---0---00-00-0-
---00---000-0--
----0000---00--
00--00-00--010-
100--000---010-
100-------000--
0-00----000-0--
-0-0---0-00--0-
--0----00011--0
-----00-0-0----
--0-0-----0---0
00-0--1100-0-0-
-00---000-0----

Generation = 2, Population = 108.
-0-2--10-0-012-
0-1-10----0-0-2
---11--10----01
---0011-0---000
------0--0-----
0-100-----0----
---1---1---1---
--0---00----1--
00--11--00--1--
---0-1-11001--0
2--0-------1--0
211--0000--11--
1---0---11101--
---10-01-11----
-----0--11-20--
-----11010-----
0--0---0--1----
1----0-211-----
--1--0-1-0---0-

*** Life<FredkinCell> 11x8 ***

Generation = 0, Population = 80.
000000-0
-0000000
00000-00
00000000
00000000
0000-00-
0000000-
00000000
-0000000
00-00000
00000000

Generation = 1, Population = 39.
11111-01
01---111
----1-11
1----1-1
1---1---
1--1-11-
1---1-1-
--------
011----1
-1-1---1
-1-1111-

Generation = 2, Population = 45.
-2--20--
---002-2
-0-0---2
20--0-02
-0---000
-00--2-0
20---020
-00-0-00
122---02
--02-0-2
02----2-

*** Life<FredkinCell> 7x18 ***

Generation = 0, Population = 59.
0--0--000---------
---00-0---00--0-0-
-00--0--0-0--0000-
0--0--0-000--00000
-0-----000-0-0-0-0
-0---00-000--0-000
0-00-0-0---0-0-00-

Generation = 1, Population = 66.
-001-0--1000--0-0-
00--101--0-10-1010
-110--0010--0--11-
-0--0--011--011-1-
-100-001-1----0---
-1-00-1--1100--11-
-011-10--0---1----

*** Life<FredkinCell> 9x5 ***

Generation = 0, Population = 23.
--00-
-0000
000--
00--0
--00-
-0000
0-0-0
-0-0-
-----

Generation = 2, Population = 22.
---00
--022
--000
0--00
1----
-20-0
--20-
--1-0
0-0-0

Generation = 4, Population = 25.
-0--0
-1024
-1002
2--00
3-1-0
-----
004--
11--2
0--02

*** Life<FredkinCell> 18x6 ***

Generation = 0, Population = 69.
-000-0
0--00-
-----0
00000-
--000-
00000-
000-00
---00-
-0--00
-00--0
0--000
-00000
-00000
-0-00-
0-0-00
000000
0-00-0
00--00

Generation = 4, Population = 58.
0-0-10
10---3
11--3-
-0442-
--10-1
0--440
1-0-41
----2-
12-20-
--21-0
2-10-2
222212
342---
-20---
422-20
4-----
--10-0
---0--

*** Life<FredkinCell> 6x1 ***

Generation = 0, Population = 6.
0
0
0
0
0
0

Generation = 2, Population = 2.
-
0
-
-
0
-

Generation = 4, Population = 2.
-
-
1
1
-
-

*** Life<FredkinCell> 1x10 ***

Generation = 0, Population = 10.
0000000000

Generation = 1, Population = 2.
1--------1

Generation = 2, Population = 2.
-0------0-

Generation = 3, Population = 4.
1-0----0-1

Generation = 4, Population = 2.
---0--0---

Generation = 5, Population = 4.
--0-00-0--

Generation = 6, Population = 4.
-0--11--0-

Generation = 7, Population = 8.
1-002200-1

Generation = 8, Population = 2.
--1----1--

*** Life<FredkinCell> 2x18 ***

Generation = 0, Population = 31.
00-0-0-0000000-000
0000000000000000-0

*** Life<FredkinCell> 20x5 ***

Generation = 0, Population = 10.
-----
0----
-----
-----
-0---
--0--
----0
0-0--
--0--
---0-
-----
-----
-----
-----
-----
-----
-----
-----
--0-0
-----

Generation = 3, Population = 34.
0-0--
-0-0-
0-0--
-0--0
0-01-
---0-
0----
0012-
2-100
---0-
0-1--
----0
---0-
-----
-----
--0-0
-0---
0---0
---0-
0-0--

*** Life<FredkinCell> 11x9 ***

Generation = 0, Population = 58.
---0-0-00
0-0-0-00-
---------
00-0000--
000-000-0
00000-0--
-0-00000-
00--00000
-00--0000
00--0-000
-0-0-00-0

Generation = 5, Population = 51.
-1220--0-
-3--1020-
1-113---2
1--32---2
1-113-5--
00-121---
23-0--3-3
-3-0---20
2-1--30--
2-2-02--3
02----11-

*** Life<FredkinCell> 1x20 ***

Generation = 0, Population = 19.
0000-000000000000000

Generation = 1, Population = 4.
1--1-1-------------1

Generation = 2, Population = 4.
-00---0-----------0-

Generation = 3, Population = 8.
1111-1-0---------0-1

Generation = 4, Population = 4.
2--2----0-------0---

Generation = 5, Population = 7.
-11-0--0-0-----0-0--

Generation = 6, Population = 8.
222--10---0---0---0-

Generation = 7, Population = 13.
3-320210-0-0-0-0-0-1

Generation = 8, Population = 2.
--4----1------------

Generation = 9, Population = 4.
-2-2--1-0-----------
